{
    "lang": "en",
    "manage": {
        "user": {
            "title": {
                "name": "User"
            },
            "table": {
                "photo": "Photo",
                "name": "Name",
                "position": "Position",
                "email": "Email",
                "last_login": "Last Login",
                "options": "Options"
            },
            "form": {
                "new_account": "NEW ACCOUNT",
                "account_info": "ACCOUNT INFORMATION",
                "username": "Username",
                "password": "Password",
                "email": "Email",
                "phone": "Phone No.",
                "position": "Position",
                "salary": "Salary",
                "date_of_birth": "Date Of Birth",
                "id_card": "ID Card",
                "firstname": "Firstname",
                "lastname": "Surename",
                "nationality": "Nationality",
                "origin": "Origin",
                "religion": "Religion",
                "last_login": "Last Login",
                "address": "Address",
                "soi": "Soi",
                "road": "Road",
                "country": "Country",
                "province": "Province",
                "district": "District",
                "sub_district": "Sub-District",
                "zipcode": "Zip"
            },
            "btn": {
                "create": "CREATE ACCOUNT NOW",
                "update": "UPDATE ACCOUNT NOW",
                "edit": "EDIT ACCOUNT",
                "delete": "DELETE"
            },
            "select": {
                "position": "Choose a position",
                "nationality": "Choose a nationality",
                "origin": "Choose an origin",
                "religion": "Choose a religion"
            }
        },
        "position": {
            "title": {
                "name": "Position"
            },
            "table": {
                "position_name_th": "Position (TH)",
                "position_name_en": "Position (EN)",
                "updateby": "Update By",
                "last_update": "Last Update",
                "options": "Options"
            },
            "form": {
                "new_position": "NEW POSITION",
                "position_info": "POSITION INFORMATION",
                "position_name_th": "Position (TH)",
                "position_name_en": "Position (EN)"
            },
            "btn": {
                "create": "CREATE POSITION NOW",
                "update": "UPDATE POSITION NOW"
            }
        },
        "role": {
            "title": {
                "name": "Role"
            },
            "table": {
                "role": "Role",
                "updateby": "Update By",
                "last_update": "Last Update",
                "options": "Options"
            },
            "form": {
                "new_role": "NEW ROLE",
                "role_info": "ROLE INFORMATION",
                "no": "No.",
                "menu": "Menu",
                "is_view": "View",
                "is_create": "Create",
                "is_update": "Update",
                "is_delete": "Delete"
            },
            "btn": {
                "create": "CREATE ROLE NOW",
                "update": "UPDATE ROLE NOW"
            },
            "messages": {
                "exists": "Role Name doesnt exists"
            }
        }
    }
}